{
  "project_info": {
    "project_number": "758599529693",
    "project_id": "time-wrap-photo-editor",
    "storage_bucket": "time-wrap-photo-editor.appspot.com"
  },
  "client": [
    {
      "client_info": {
        "mobilesdk_app_id": "1:758599529693:android:bd555615cdab50e30b1734",
        "android_client_info": {
          "package_name": "ltos.timewarpeditor.scan.filterpro"
        }
      },
      "oauth_client": [
        {
          "client_id": "758599529693-uvthp4bk9m0cmkh696ep3htorkopp2c9.apps.googleusercontent.com",
          "client_type": 3
        }
      ],
      "api_key": [
        {
          "current_key": "AIzaSyCqZiYVh7D0bLGQcSz0rpCJMvZdoD2XivY"
        }
      ],
      "services": {
        "appinvite_service": {
          "other_platform_oauth_client": [
            {
              "client_id": "758599529693-uvthp4bk9m0cmkh696ep3htorkopp2c9.apps.googleusercontent.com",
              "client_type": 3
            }
          ]
        }
      }
    }
  ],
  "configuration_version": "1"
}